Degradazione fotocatalitica di soluzioni di blu di metilene – InDaLab
…
data_prove <- data_prove %>%
  left_join(data_C0, by = ".treat")

## si crea un data frame il quale contiene il valore della concentrazione per ogni tempo e per ogni prova (ricavato dal massimo dello spettro per un certo tempo

data_prove_max <- data_prove %>%
  group_by(.treat, tempo_min) %>%
  slice_max(order_by = Absorbance, n = 1, with_ties = FALSE) %>%
  ungroup()%>%
  mutate(Concentration_ppm = (1/coeff)*Absorbance) 
data_prove_max

# A tibble: 54 × 6
   .treat tempo_min Wavelength_nm Absorbance    C0 Concentration_ppm
   <fct>      <dbl>         <dbl>      <dbl> <dbl>             <dbl>
 1 (1)          -30           664     1.51    7.77            8.34  
 2 (1)            0           664     1.40    7.77            7.77  
 3 (1)           10           655     0.710   7.77            3.93  
 4 (1)           20           644     0.413   7.77            2.29  
 5 (1)           30           632     0.272   7.77            1.51  
 6 (1)           45           616     0.111   7.77            0.617 
 7 (1)           60           301     0.0123  7.77            0.0681
 8 a            -30           664     1.47    7.46            8.15  
 9 a              0           664     1.35    7.46            7.46  
10 a             10           653     0.567   7.46            3.14  
# ℹ 44 more rows
…
